		Fichier: 1x60189_4.dat			

	Nombre de chevauchments, nombre de contigs, taille de meilleur contig
Informations Initiales: ,15411,39,1

		Nombre de generations: 20			
Meilleur individu:, 6236,15,12
Pourcentage chevauché: 40.46%
Temps d'execution: 12.31 sec

		Nombre de generations: 50			
Meilleur individu:, 6515,13,12
Pourcentage chevauché: 42.27%
Temps d'execution: 28.96 sec

		Nombre de generations: 100			
Meilleur individu:, 6724,13,11
Pourcentage chevauché: 43.63%
Temps d'execution: 57.98 sec


		Nombre de generations: 55
		Taille de population: 3000			
Meilleur individu:, 7294,10,13
Pourcentage chevauché: 47.33%
Temps d'execution: 166.41 sec


		Fichier: 2x60189_5.dat			

	Nombre de chevauchments, nombre de contigs, taille de meilleur contig
Informations Initiales: ,18552,48,1

		Nombre de generations: 20			
Meilleur individu:, 7058,21,15
Pourcentage chevauché: 38.04%
Temps d'execution: 13.60 sec

		Nombre de generations: 50			
Meilleur individu:, 7303,17,15
Pourcentage chevauché: 39.37%
Temps d'execution: 34.37 sec

		Nombre de generations: 100			
Meilleur individu:, 7368,16,15
Pourcentage chevauché: 39.72%
Temps d'execution: 69.14 sec



		Fichier: 3x60189_6.dat			

	Nombre de chevauchments, nombre de contigs, taille de meilleur contig
Informations Initiales: ,22651,66,1

		Nombre de generations: 20			
Meilleur individu:, 9615,26,23
Pourcentage chevauché: 42.45%
Temps d'execution: 17.72 sec

		Nombre de generations: 50			
Meilleur individu:, 10846,18,23
Pourcentage chevauché: 47.88%
Temps d'execution: 44.73 sec

		Nombre de generations: 100			
Meilleur individu:, 11182,16,23
Pourcentage chevauché: 49.37%
Temps d'execution: 90.61 sec



		Fichier: 4x60189_7.dat			

	Nombre de chevauchments, nombre de contigs, taille de meilleur contig
Informations Initiales: ,26347,68,1

		Nombre de generations: 20			
Meilleur individu:, 10784,28,21
Pourcentage chevauché: 40.93%
Temps d'execution: 17.13 sec

		Nombre de generations: 50			
Meilleur individu:, 12602,22,21
Pourcentage chevauché: 47.83%
Temps d'execution: 44.35 sec

		Nombre de generations: 100			
Meilleur individu:, 12587,19,21
Pourcentage chevauché: 47.77%
Temps d'execution: 93.08 sec



		Fichier: 5m15421_5.dat			

	Nombre de chevauchments, nombre de contigs, taille de meilleur contig
Informations Initiales: ,50610,127,1

		Nombre de generations: 20			
Meilleur individu:, 12261,86,20
Pourcentage chevauché: 24.23%
Temps d'execution: 33.26 sec

		Nombre de generations: 50			
Meilleur individu:, 17432,69,20
Pourcentage chevauché: 34.44%
Temps d'execution: 83.11 sec

		Nombre de generations: 100			
Meilleur individu:, 18123,63,20
Pourcentage chevauché: 35.81%
Temps d'execution: 168.38 sec



		Fichier: 6m15421_6.dat			

	Nombre de chevauchments, nombre de contigs, taille de meilleur contig
Informations Initiales: ,59090,173,1

		Nombre de generations: 20			
Meilleur individu:, 13988,111,37
Pourcentage chevauché: 23.67%
Temps d'execution: 45.71 sec

		Nombre de generations: 50			
Meilleur individu:, 18520,94,37
Pourcentage chevauché: 31.34%
Temps d'execution: 115.20 sec

		Nombre de generations: 100			
Meilleur individu:, 21317,79,37
Pourcentage chevauché: 36.08%
Temps d'execution: 229.60 sec



		Fichier: 7_m15421_7.dat			

	Nombre de chevauchments, nombre de contigs, taille de meilleur contig
Informations Initiales: ,67833,177,1

		Nombre de generations: 20			
Meilleur individu:, 14636,125,29
Pourcentage chevauché: 21.58%
Temps d'execution: 48.67 sec

		Nombre de generations: 50			
Meilleur individu:, 20948,103,29
Pourcentage chevauché: 30.88%
Temps d'execution: 123.42 sec

		Nombre de generations: 100			
Meilleur individu:, 25638,86,29
Pourcentage chevauché: 37.80%
Temps d'execution: 243.75 sec



		Fichier: 8_j02459_7.dat			

	Nombre de chevauchments, nombre de contigs, taille de meilleur contig
Informations Initiales: ,142751,352,1

		Nombre de generations: 20			
Meilleur individu:, 24345,270,60
Pourcentage chevauché: 17.05%
Temps d'execution: 101.78 sec

		Nombre de generations: 50			
Meilleur individu:, 32052,243,33
Pourcentage chevauché: 22.45%
Temps d'execution: 257.12 sec

		Nombre de generations: 100			
Meilleur individu:, 39569,216,60
Pourcentage chevauché: 27.72%
Temps d'execution: 499.00 sec



		Fichier: 9_38524243_4.dat			

	Nombre de chevauchments, nombre de contigs, taille de meilleur contig
Informations Initiales: ,312954,442,1

		Nombre de generations: 20			
Meilleur individu:, 19601,404,19
Pourcentage chevauché: 6.26%
Temps d'execution: 145.78 sec

		Nombre de generations: 50			
Meilleur individu:, 30405,381,19
Pourcentage chevauché: 9.72%
Temps d'execution: 359.16 sec

		Nombre de generations: 100			
Meilleur individu:, 47932,345,19
Pourcentage chevauché: 15.32%
Temps d'execution: 766.30 sec



