		Fichier: 1x60189_4.dat			

	Nombre de chevauchments, nombre de contigs, taille de meilleur contig
Informations Initiales: ,15411,39,1

		Nombre de generations: 100			
Meilleur individu:, 4486,21,12
Pourcentage chevauché: 29.11%
Temps d'execution: 51.00 sec



		Fichier: 2x60189_5.dat			

	Nombre de chevauchments, nombre de contigs, taille de meilleur contig
Informations Initiales: ,18552,48,1

		Nombre de generations: 100			
Meilleur individu:, 4778,29,15
Pourcentage chevauché: 25.75%
Temps d'execution: 62.35 sec



		Fichier: 3x60189_6.dat			

	Nombre de chevauchments, nombre de contigs, taille de meilleur contig
Informations Initiales: ,22651,66,1

		Nombre de generations: 100			
Meilleur individu:, 6603,38,23
Pourcentage chevauché: 29.15%
Temps d'execution: 88.50 sec



		Fichier: 4x60189_7.dat			

	Nombre de chevauchments, nombre de contigs, taille de meilleur contig
Informations Initiales: ,26347,68,1

		Nombre de generations: 100			
Meilleur individu:, 8531,39,21
Pourcentage chevauché: 32.38%
Temps d'execution: 91.10 sec



		Fichier: 5m15421_5.dat			

	Nombre de chevauchments, nombre de contigs, taille de meilleur contig
Informations Initiales: ,50610,127,1

		Nombre de generations: 100			
Meilleur individu:, 8042,99,20
Pourcentage chevauché: 15.89%
Temps d'execution: 162.89 sec



		Fichier: 6m15421_6.dat			

	Nombre de chevauchments, nombre de contigs, taille de meilleur contig
Informations Initiales: ,59090,173,1

		Nombre de generations: 100			
Meilleur individu:, 10022,127,37
Pourcentage chevauché: 16.96%
Temps d'execution: 236.22 sec



		Fichier: 7_m15421_7.dat			

	Nombre de chevauchments, nombre de contigs, taille de meilleur contig
Informations Initiales: ,67833,177,1

		Nombre de generations: 100			
Meilleur individu:, 9614,142,29
Pourcentage chevauché: 14.17%
Temps d'execution: 238.01 sec



		Fichier: 8_j02459_7.dat			

	Nombre de chevauchments, nombre de contigs, taille de meilleur contig
Informations Initiales: ,142751,352,1

		Nombre de generations: 100			
Meilleur individu:, 19764,282,60
Pourcentage chevauché: 13.85%
Temps d'execution: 539.74 sec



		Fichier: 9_38524243_4.dat			

	Nombre de chevauchments, nombre de contigs, taille de meilleur contig
Informations Initiales: ,312954,442,1

		Nombre de generations: 100			
Meilleur individu:, 11494,417,19
Pourcentage chevauché: 3.67%
Temps d'execution: 636.90 sec



